…
```
## Registered S3 method overwritten by 'quantmod':
##   method            from
##   as.zoo.data.frame zoo 
## `summarise()` has grouped output by 'OTU'. You can override using the `.groups` argument.
```

```r
ur.df2
```

```
## # A tibble: 1,508 × 12
## # Groups:   OTU [116]
##    OTU   Model…¹ pval_…² pval_…³ pval_…⁴ pval_…⁵ pval_…⁶ pval_…⁷ pval_…⁸ pval_…⁹
##    <chr> <chr>     <dbl>   <dbl>   <dbl>   <dbl>   <dbl>   <dbl>   <dbl>   <dbl>
##  1 [Eub… Chicke…  NA      NA      NA     NaN        NA      NA      NA      NA  
##  2 [Eub… Chicke…   0.542   0.227   0.409   0.01      0.1     0.1     0.1     0.1
##  3 [Eub… Chicke…   0.231   0.354   0.410   0.600     0.1     0.1     0.1     0.1
##  4 [Rum… Chicke…   0.789   0.133   0.238   0.01      0.1     0.1     0.1     0.1
##  5 Acin… Chicke…  NA      NA      NA     NaN        NA      NA      NA      NA  
##  6 Aero… Chicke…  NA      NA      NA     NaN        NA      NA      NA      NA  
##  7 Alis… Chicke…  NA      NA      NA     NaN        NA      NA      NA      NA  
##  8 Allo… Chicke…  NA      NA      NA     NaN        NA      NA      NA      NA  
##  9 Anae… Chicke…  NA      NA      NA     NaN        NA      NA      NA      NA  
## 10 Anae… Chicke…  NA      NA      NA     NaN        NA      NA      NA      NA  
## # … with 1,498 more rows, 2 more variables: pval_Box.test <dbl>,
## #   OTU_Reactor_Treatment_Dose <chr>, and abbreviated variable names
## #   ¹​Model2_reactor_treatment_dose, ²​pval_ur.df2_none, ³​pval_ur.df2_drift,
## #   ⁴​pval_ur.df2_trend, ⁵​pval_adf.test, ⁶​pval_kpss_type1, ⁷​pval_kpss_type2,
## #   ⁸​pval_kpss_type3, ⁹​pval_kpss.test_level
```
…
tmp
```

```
## # A tibble: 1,508 × 21
## # Groups:   Model2_reactor_treatment_dose [13]
##    Model…¹ OTU   cat_p…² OTU_R…³ pval_…⁴ pval_…⁵ pval_…⁶ pval_…⁷ pval_…⁸ pval_…⁹
##    <chr>   <chr> <chr>   <chr>     <dbl>   <dbl>   <dbl>   <dbl>   <dbl>   <dbl>
##  1 Chicke… Hold… dis     Holdem… NA      NA      NA       0.01   NA         NA  
##  2 Chicke… UBA1… dis     UBA181… NA      NA      NA       0.858  NA         NA  
##  3 Chicke… [Eub… mid     [Eubac…  0.542   0.227   0.409   0.01    0.1        0.1
##  4 Chicke… Baci… mid     Bacill…  0.387   0.283   0.0573  0.712   0.0949     0.1
##  5 Chicke… Blau… mid     Blauti…  0.766   0.241   0.0716  0.804   0.1        0.1
##  6 Chicke… CAG-… mid     CAG-56…  0.0861  0.0638  0.754   0.496   0.1        0.1
##  7 Chicke… Flav… mid     Flavon…  0.910   0.0212  0.0111  0.0559  0.1        0.1
##  8 Chicke… Gord… mid     Gordon… NA      NA      NA       0.959  NA         NA  
##  9 Chicke… Lach… mid     Lachno…  0.912   0.0419  0.0151  0.912   0.1        0.1
## 10 Chicke… Lach… mid     Lachno…  0.547   0.0797  0.153   0.905   0.1        0.1
## # … with 1,498 more rows, 11 more variables: pval_kpss_type3 <dbl>,
## #   pval_kpss.test_level <dbl>, pval_Box.test <dbl>,
## #   OTU_Reactor_Treatment_Dose.y <chr>, pos <dbl>, neg <dbl>, p2_pos <dbl>,
## #   p2_neg <dbl>, p1_pos <dbl>, p1_neg <dbl>, cat_lm <chr>, and abbreviated
## #   variable names ¹​Model2_reactor_treatment_dose, ²​cat_period,
## #   ³​OTU_Reactor_Treatment_Dose, ⁴​pval_ur.df2_none, ⁵​pval_ur.df2_drift,
## #   ⁶​pval_ur.df2_trend, ⁷​pval_adf.test, ⁸​pval_kpss_type1, ⁹​pval_kpss_type2
```
…
