…
```r
tax_table(ps_tmp_tax) %>% 
    data.frame() %>% 
  select(c("Best_Hit_ARO", "Strain")) %>% 
  group_by(Strain) %>% 
  add_count() %>% 
  arrange(-n)
```

```
## # A tibble: 244 × 3
## # Groups:   Strain [29]
##    Best_Hit_ARO          Strain               n
##    <chr>                 <chr>            <int>
##  1 emrR                  Escherichia coli    99
##  2 emrA                  Escherichia coli    99
##  3 emrB                  Escherichia coli    99
##  4 CTX-M-1               Escherichia coli    99
##  5 baeS                  Escherichia coli    99
##  6 CRP                   Escherichia coli    99
##  7 YojI                  Escherichia coli    99
##  8 evgS                  Escherichia coli    99
##  9 evgA                  Escherichia coli    99
## 10 Escherichia coli mdfA Escherichia coli    99
## # … with 234 more rows
```
…
