…
```r
tax_table(physeq) %>% 
  data.frame() %>% 
  select(c("Best_Hit_ARO", "Strain")) %>% 
  group_by(Strain) %>% 
  add_count() %>% 
  arrange(-n)
```

```
## # A tibble: 131 × 3
## # Groups:   Strain [22]
##    Best_Hit_ARO          Strain               n
##    <chr>                 <chr>            <int>
##  1 emrR                  Escherichia coli    53
##  2 emrA                  Escherichia coli    53
##  3 emrB                  Escherichia coli    53
##  4 CTX-M-1               Escherichia coli    53
##  5 baeS                  Escherichia coli    53
##  6 CRP                   Escherichia coli    53
##  7 YojI                  Escherichia coli    53
##  8 evgS                  Escherichia coli    53
##  9 evgA                  Escherichia coli    53
## 10 Escherichia coli mdfA Escherichia coli    53
## # … with 121 more rows
```
…
