…
```r
meta 
```

```
## # A tibble: 43 x 61
##    sample      input filtered denoisedF denoisedR merged tabled filtered_pc
##    <chr>       <dbl>    <dbl>     <dbl>     <dbl>  <dbl>  <dbl>       <dbl>
##  1 CR-15-S292  23558    23449     23410     23355  22970  22970       0.995
##  2 CR-17-S97   35320    35021     34992     34870  34419  34419       0.992
##  3 CR-19-S341  17616    17528     17501     17477  17246  17246       0.995
##  4 CR-21-S126   5791     5764      5753      5734   5585   5585       0.995
##  5 CR-46-S191  24284    24178     24128     24062  23531  23531       0.996
##  6 CR-64-S324  10847    10801     10784     10726  10465  10465       0.996
##  7 D-0-S154    11484    11428     11279     11256  10248  10248       0.995
##  8 TR1-15-S168   153      151       144       115     79     79       0.987
##  9 TR1-17-S246 16895    16833     16807     16749  16429  16429       0.996
## 10 TR1-19-S305  9274     9256      9239      9203   8959   8959       0.998
## # … with 33 more rows, and 53 more variables: denoisedF_pc <dbl>,
## #   denoisedR_pc <dbl>, merged_pc <dbl>, filtered_merged_pc <dbl>,
## #   input_merged_pc <dbl>, tabled_joined <dbl>, chimera_out <dbl>,
## #   length_filtered <dbl>, tabled_pc <dbl>, chimera_out_pc <dbl>,
## #   length_filtered_pc <dbl>, Sample_description <chr>, I7_Index_ID <chr>,
## #   index <chr>, I5_Index_ID <chr>, index2 <chr>, Description2 <chr>,
## #   Experiment <chr>, Reactor <chr>, Treatment <chr>, Day_of_Connection <dbl>,
## #   Day_of_Treatment <dbl>, Day_from_Inoculum <dbl>, Enrichment <chr>,
## #   Phase <chr>, Treatment2 <chr>, Date <chr>, Paul <chr>,
…
```r
fil_df %>% 
  write_tsv(here::here("tmp/rgi_card_table.tsv"))

fil_df
```

```
## # A tibble: 108 x 55
##    ORF_ID  Best_Hit_ARO  Model_type  Drug.Class Resistance.Mech… AMR.Gene.Family
##    <chr>   <chr>         <chr>       <chr>      <chr>            <chr>          
##  1 megahi… APH(3'')-Ib   protein ho… aminoglyc… antibiotic inac… APH(3'')       
##  2 megahi… APH(6)-Id     protein ho… aminoglyc… antibiotic inac… APH(6)         
##  3 megahi… vanZA         protein ho… glycopept… antibiotic targ… vanZ; glycopep…
##  4 megahi… vanYA         protein ho… glycopept… antibiotic targ… vanY; glycopep…
##  5 megahi… vanXA         protein ho… glycopept… antibiotic targ… vanX; glycopep…
##  6 megahi… vanA          protein ho… glycopept… antibiotic targ… glycopeptide r…
##  7 megahi… vanHA         protein ho… glycopept… antibiotic targ… vanH; glycopep…
##  8 megahi… vanRA         protein ho… glycopept… antibiotic targ… glycopeptide r…
##  9 megahi… tet32         protein ho… tetracycl… antibiotic targ… tetracycline-r…
## 10 megahi… Escherichia … protein ho… cephalosp… antibiotic inac… ampC-type beta…
## # … with 98 more rows, and 49 more variables: Best_Identities <dbl>,
## #   Percentage.Length.of.Reference.Sequence <dbl>, Note <chr>, Length AA <dbl>,
## #   Gene name <chr>, Contig ID <chr>, TPM D1 <dbl>, TPM D10 <dbl>,
## #   TPM D11 <dbl>, TPM D12 <dbl>, TPM D13 <dbl>, TPM D14 <dbl>, TPM D15 <dbl>,
## #   TPM D16 <dbl>, TPM D17 <dbl>, TPM D18 <dbl>, TPM D19 <dbl>, TPM D2 <dbl>,
## #   TPM D20 <dbl>, TPM D21 <dbl>, TPM D22 <dbl>, TPM D23 <dbl>, TPM D24 <dbl>,
## #   TPM D25 <dbl>, TPM D26 <dbl>, TPM D27 <dbl>, TPM D28 <dbl>, TPM D29 <dbl>,
## #   TPM D3 <dbl>, TPM D30 <dbl>, TPM D31 <dbl>, TPM D32 <dbl>, TPM D33 <dbl>,
## #   TPM D34 <dbl>, TPM D35 <dbl>, TPM D36 <dbl>, TPM D37 <dbl>, TPM D38 <dbl>,
…
