…
```
## Registered S3 method overwritten by 'quantmod':
##   method            from
##   as.zoo.data.frame zoo 
## `summarise()` has grouped output by 'OTU'. You can override using the `.groups` argument.
```

```r
ur.df2
```

```
## # A tibble: 1,995 × 12
## # Groups:   OTU [105]
##    OTU         Model…¹ pval_…² pval_u…³ pval_…⁴ pval_a…⁵ pval_…⁶ pval_…⁷ pval_…⁸
##    <chr>       <chr>     <dbl>    <dbl>   <dbl>    <dbl>   <dbl>   <dbl>   <dbl>
##  1 [Clostridi… Human1…   0.453  0.0338   0.219    0.0628  0.0817     0.1  0.0599
##  2 [Eubacteri… Human1…   0.711  0.149    0.297    0.870   0.1        0.1  0.1   
##  3 [Eubacteri… Human1…   0.673  0.196    0.729    0.01    0.1        0.1  0.0726
##  4 [Eubacteri… Human1…  NA     NA       NA      NaN      NA         NA   NA     
##  5 [Eubacteri… Human1…   0.185  0.570    0.504    0.01    0.1        0.1  0.1   
##  6 [Ruminococ… Human1…   0.576  0.00118  0.0851   0.695   0.0916     0.1  0.0973
##  7 [Ruminococ… Human1…  NA     NA       NA      NaN      NA         NA   NA     
##  8 [Ruminococ… Human1…   0.320  0.205    0.587    0.99    0.1        0.1  0.0502
##  9 Acinetobac… Human1…  NA     NA       NA      NaN      NA         NA   NA     
## 10 Adlercreut… Human1…   0.680  0.0700   0.0368   0.01    0.1        0.1  0.1   
## # … with 1,985 more rows, 3 more variables: pval_kpss.test_level <dbl>,
## #   pval_Box.test <dbl>, OTU_Reactor_Treatment_Dose <chr>, and abbreviated
## #   variable names ¹​Model2_reactor_treatment_dose, ²​pval_ur.df2_none,
## #   ³​pval_ur.df2_drift, ⁴​pval_ur.df2_trend, ⁵​pval_adf.test, ⁶​pval_kpss_type1,
## #   ⁷​pval_kpss_type2, ⁸​pval_kpss_type3
```
…
tmp
```

```
## # A tibble: 1,995 × 21
## # Groups:   Model2_reactor_treatment_dose [19]
##    Model2_reac…¹ OTU   cat_p…² OTU_R…³ pval_…⁴ pval_u…⁵ pval_…⁶ pval_a…⁷ pval_…⁸
##    <chr>         <chr> <chr>   <chr>     <dbl>    <dbl>   <dbl>    <dbl>   <dbl>
##  1 Human1_1_CR_… [Clo… normal  [Clost…   0.453  0.0338   0.219    0.0628  0.0817
##  2 Human1_1_CR_… [Eub… normal  [Eubac…   0.711  0.149    0.297    0.870   0.1   
##  3 Human1_1_CR_… [Eub… normal  [Eubac…   0.673  0.196    0.729    0.01    0.1   
##  4 Human1_1_CR_… [Eub… normal  [Eubac…  NA     NA       NA      NaN      NA     
##  5 Human1_1_CR_… [Eub… normal  [Eubac…   0.185  0.570    0.504    0.01    0.1   
##  6 Human1_1_CR_… [Rum… normal  [Rumin…   0.576  0.00118  0.0851   0.695   0.0916
##  7 Human1_1_CR_… [Rum… normal  [Rumin…  NA     NA       NA      NaN      NA     
##  8 Human1_1_CR_… [Rum… normal  [Rumin…   0.320  0.205    0.587    0.99    0.1   
##  9 Human1_1_CR_… Acin… normal  Acinet…  NA     NA       NA      NaN      NA     
## 10 Human1_1_CR_… Adle… normal  Adlerc…   0.680  0.0700   0.0368   0.01    0.1   
## # … with 1,985 more rows, 12 more variables: pval_kpss_type2 <dbl>,
## #   pval_kpss_type3 <dbl>, pval_kpss.test_level <dbl>, pval_Box.test <dbl>,
## #   OTU_Reactor_Treatment_Dose.y <chr>, pos <dbl>, neg <dbl>, p1_pos <dbl>,
## #   p1_neg <dbl>, p2_pos <dbl>, p2_neg <dbl>, cat_lm <chr>, and abbreviated
## #   variable names ¹​Model2_reactor_treatment_dose, ²​cat_period,
## #   ³​OTU_Reactor_Treatment_Dose, ⁴​pval_ur.df2_none, ⁵​pval_ur.df2_drift,
## #   ⁶​pval_ur.df2_trend, ⁷​pval_adf.test, ⁸​pval_kpss_type1
```
…
