…
```
## `summarise()` has grouped output by 'model', 'CONCOCT_bin',
## 'binid_phylum_species'. You can override using the `.groups` argument.
```

```r
MAGs_count_ARG
```

```
## # A tibble: 177 × 5
## # Groups:   model, CONCOCT_bin, binid_phylum_species [176]
##    model CONCOCT_bin binid_phylum_species                        GTDB_…¹ num_ARG
##    <chr> <chr>       <chr>                                       <chr>     <int>
##  1 c1    Bin_1_1     Bin_1_1;p__Actinobacteriota;s__Rhodococcus… d__Bac…      12
##  2 c1    Bin_1_2     Bin_1_2;p__Firmicutes_A;s__                 d__Bac…       4
##  3 c1    Bin_10_1    Bin_10_1;p__Firmicutes_A;s__                d__Bac…       4
##  4 c1    Bin_10_2    Bin_10_2;p__Firmicutes_A;s__                d__Bac…       4
##  5 c1    Bin_11_1_1  Bin_11_1_1;p__Firmicutes_A;s__Sellimonas a… d__Bac…       8
##  6 c1    Bin_11_10_1 Bin_11_10_1;p__Firmicutes_A;s__Mediterrane… d__Bac…       5
##  7 c1    Bin_11_11   Bin_11_11;p__Firmicutes_A;s__Enterocloster… d__Bac…       6
##  8 c1    Bin_11_12   Bin_11_12;p__Firmicutes_A;s__Lachnoclostri… d__Bac…       5
##  9 c1    Bin_11_13   Bin_11_13;p__Firmicutes_A;s__Ruminococcus_… d__Bac…       4
## 10 c1    Bin_11_14   Bin_11_14;p__Firmicutes_A;s__Blautia pulli… d__Bac…       5
## # … with 167 more rows, and abbreviated variable name ¹​GTDB_tax_CONCOCT_clean
## # ℹ Use `print(n = ...)` to see more rows
```
…
